CircuitoBase/simulation/qsim/CircuitoBase.msim.vcd
$comment
	File created using the following command:
		vcd file CircuitoBase.msim.vcd -direction
$end
$date
	Thu Apr  6 03:09:14 2017
$end
$version
	ModelSim Version 10.4b
$end
$timescale
	1ps
$end

$scope module hierarquico_vlg_vec_tst $end
$var reg 1 ! clock $end
$var reg 1 " iniciar $end
$var reg 1 # pulso $end
$var reg 1 $ reset $end
$var reg 1 % zerar $end
$var wire 1 & fim $end
$var wire 1 ' saida [15] $end
$var wire 1 ( saida [14] $end
$var wire 1 ) saida [13] $end
$var wire 1 * saida [12] $end
$var wire 1 + saida [11] $end
$var wire 1 , saida [10] $end
$var wire 1 - saida [9] $end
$var wire 1 . saida [8] $end
$var wire 1 / saida [7] $end
$var wire 1 0 saida [6] $end
$var wire 1 1 saida [5] $end
$var wire 1 2 saida [4] $end
$var wire 1 3 saida [3] $end
$var wire 1 4 saida [2] $end
$var wire 1 5 saida [1] $end
$var wire 1 6 saida [0] $end
$var wire 1 7 saidaDisplay [27] $end
$var wire 1 8 saidaDisplay [26] $end
$var wire 1 9 saidaDisplay [25] $end
$var wire 1 : saidaDisplay [24] $end
$var wire 1 ; saidaDisplay [23] $end
$var wire 1 < saidaDisplay [22] $end
$var wire 1 = saidaDisplay [21] $end
$var wire 1 > saidaDisplay [20] $end
$var wire 1 ? saidaDisplay [19] $end
$var wire 1 @ saidaDisplay [18] $end
$var wire 1 A saidaDisplay [17] $end
$var wire 1 B saidaDisplay [16] $end
$var wire 1 C saidaDisplay [15] $end
$var wire 1 D saidaDisplay [14] $end
$var wire 1 E saidaDisplay [13] $end
$var wire 1 F saidaDisplay [12] $end
$var wire 1 G saidaDisplay [11] $end
$var wire 1 H saidaDisplay [10] $end
$var wire 1 I saidaDisplay [9] $end
$var wire 1 J saidaDisplay [8] $end
$var wire 1 K saidaDisplay [7] $end
$var wire 1 L saidaDisplay [6] $end
$var wire 1 M saidaDisplay [5] $end
$var wire 1 N saidaDisplay [4] $end
$var wire 1 O saidaDisplay [3] $end
$var wire 1 P saidaDisplay [2] $end
$var wire 1 Q saidaDisplay [1] $end
$var wire 1 R saidaDisplay [0] $end
$var wire 1 S sig_enabler $end
$var wire 1 T sig_liga $end
$var wire 1 U sig_medida [15] $end
$var wire 1 V sig_medida [14] $end
$var wire 1 W sig_medida [13] $end
$var wire 1 X sig_medida [12] $end
$var wire 1 Y sig_medida [11] $end
$var wire 1 Z sig_medida [10] $end
$var wire 1 [ sig_medida [9] $end
$var wire 1 \ sig_medida [8] $end
$var wire 1 ] sig_medida [7] $end
$var wire 1 ^ sig_medida [6] $end
$var wire 1 _ sig_medida [5] $end
$var wire 1 ` sig_medida [4] $end
$var wire 1 a sig_medida [3] $end
$var wire 1 b sig_medida [2] $end
$var wire 1 c sig_medida [1] $end
$var wire 1 d sig_medida [0] $end
$var wire 1 e sig_resetr $end

$scope module i1 $end
$var wire 1 f gnd $end
$var wire 1 g vcc $end
$var wire 1 h unknown $end
$var tri1 1 i devclrn $end
$var tri1 1 j devpor $end
$var tri1 1 k devoe $end
$var wire 1 l ~QUARTUS_CREATED_GND~I_combout $end
$var wire 1 m clock~input_o $end
$var wire 1 n clock~inputCLKENA0_outclk $end
$var wire 1 o pulso~input_o $end
$var wire 1 p reset~input_o $end
$var wire 1 q M1|C1|Ereg.LIMPA~DUPLICATE_q $end
$var wire 1 r M1|C1|Eprox.CONTA~1_combout $end
$var wire 1 s M1|C1|Ereg.CONTA~q $end
$var wire 1 t M1|C1|Eprox.EPRONTO~0_combout $end
$var wire 1 u M1|C1|Ereg.EPRONTO~q $end
$var wire 1 v iniciar~input_o $end
$var wire 1 w zerar~input_o $end
$var wire 1 x C1|Selector1~0_combout $end
$var wire 1 y C1|Ereg.zera~feeder_combout $end
$var wire 1 z C1|Ereg.zera~q $end
$var wire 1 { C1|Eprox.registra~0_combout $end
$var wire 1 | C1|Ereg.registra~q $end
$var wire 1 } C1|Ereg.soma~q $end
$var wire 1 ~ C1|Ereg.esperasoma~q $end
$var wire 1 !! C1|Selector3~0_combout $end
$var wire 1 "! C1|Ereg.espera~q $end
$var wire 1 #! C1|Selector0~0_combout $end
$var wire 1 $! C1|Ereg.parado~q $end
$var wire 1 %! C1|Eprox.iniciado~0_combout $end
$var wire 1 &! C1|Ereg.iniciado~q $end
$var wire 1 '! C1|Selector2~0_combout $end
$var wire 1 (! C1|Ereg.medindo~q $end
$var wire 1 )! M1|C1|Ereg.LIMPA~q $end
$var wire 1 *! M1|C1|Selector0~0_combout $end
$var wire 1 +! M1|C1|Ereg.INICIAL~q $end
$var wire 1 ,! M1|D1|IC_1|Qout[0]~reg0_q $end
$var wire 1 -! M1|C1|Eprox.CONTA~0_combout $end
$var wire 1 .! M1|D1|IC_1|Qout[3]~reg0_q $end
$var wire 1 /! M1|D1|IC_1|Qout[3]~2_combout $end
$var wire 1 0! M1|D1|IC_1|Qout[1]~reg0_q $end
$var wire 1 1! M1|D1|IC_1|Qout~1_combout $end
$var wire 1 2! M1|D1|IC_1|Qout[1]~reg0DUPLICATE_q $end
$var wire 1 3! M1|D1|IC_1|Qout~3_combout $end
$var wire 1 4! M1|D1|IC_1|Qout[2]~reg0_q $end
$var wire 1 5! M1|D1|IC_1|Qout[3]~4_combout $end
$var wire 1 6! M1|D1|IC_1|Qout[3]~reg0DUPLICATE_q $end
$var wire 1 7! M1|D1|IC_1|Qout[0]~0_combout $end
$var wire 1 8! M1|D1|IC_1|Qout[0]~reg0DUPLICATE_q $end
$var wire 1 9! R1|IQ[0]~feeder_combout $end
$var wire 1 :! C1|Ereg.esperasoma~DUPLICATE_q $end
$var wire 1 ;! R1|IQ[15]~0_combout $end
$var wire 1 <! C1|Ereg.registra~DUPLICATE_q $end
$var wire 1 =! R1|process_0~0_combout $end
$var wire 1 >! R1|IQ[3]~feeder_combout $end
$var wire 1 ?! M1|D1|IC_2|Qout[3]~0_combout $end
$var wire 1 @! M1|D1|IC_2|Qout[0]~reg0_q $end
$var wire 1 A! M1|D1|IC_2|Qout[2]~3_combout $end
$var wire 1 B! M1|D1|IC_2|Qout[1]~reg0_q $end
$var wire 1 C! M1|D1|IC_2|Qout~2_combout $end
$var wire 1 D! M1|D1|IC_2|Qout[1]~reg0DUPLICATE_q $end
$var wire 1 E! M1|D1|IC_2|Qout~4_combout $end
$var wire 1 F! M1|D1|IC_2|Qout[2]~reg0_q $end
$var wire 1 G! M1|D1|IC_2|Add0~0_combout $end
$var wire 1 H! M1|D1|IC_2|Qout[3]~5_combout $end
$var wire 1 I! M1|D1|IC_2|Qout[3]~reg0_q $end
$var wire 1 J! M1|D1|ClrN2~0_combout $end
$var wire 1 K! M1|D1|IC_2|Qout[0]~1_combout $end
$var wire 1 L! M1|D1|IC_2|Qout[0]~reg0DUPLICATE_q $end
$var wire 1 M! R1|IQ[6]~feeder_combout $end
$var wire 1 N! M1|D1|IC_2|Qout[3]~reg0DUPLICATE_q $end
$var wire 1 O! M1|D1|ClrN3~0_combout $end
$var wire 1 P! M1|D1|IC_3|Qout[3]~2_combout $end
$var wire 1 Q! M1|D1|IC_3|Qout[1]~reg0_q $end
$var wire 1 R! M1|D1|IC_3|Qout~1_combout $end
$var wire 1 S! M1|D1|IC_3|Qout[1]~reg0DUPLICATE_q $end
$var wire 1 T! M1|D1|IC_3|Qout~3_combout $end
$var wire 1 U! M1|D1|IC_3|Qout[2]~reg0_q $end
$var wire 1 V! M1|D1|IC_3|Add0~0_combout $end
$var wire 1 W! M1|D1|IC_3|Qout[3]~4_combout $end
$var wire 1 X! M1|D1|IC_3|Qout[3]~reg0_q $end
$var wire 1 Y! M1|D1|IC_3|Qout[0]~0_combout $end
$var wire 1 Z! M1|D1|IC_3|Qout[0]~reg0_q $end
$var wire 1 [! R1|IQ[9]~feeder_combout $end
$var wire 1 \! R1|Q[10]~feeder_combout $end
$var wire 1 ]! M1|D1|IC_3|Qout[3]~reg0DUPLICATE_q $end
$var wire 1 ^! M1|D1|IC_4|Qout[0]~reg0DUPLICATE_q $end
$var wire 1 _! M1|D1|IC_4|Qout[3]~reg0_q $end
$var wire 1 `! M1|D1|IC_4|Qout[1]~2_combout $end
$var wire 1 a! M1|D1|IC_4|Qout[1]~reg0_q $end
$var wire 1 b! M1|D1|IC_4|Qout~1_combout $end
$var wire 1 c! M1|D1|IC_4|Qout[1]~reg0DUPLICATE_q $end
$var wire 1 d! M1|D1|IC_4|Qout~3_combout $end
$var wire 1 e! M1|D1|IC_4|Qout[2]~reg0_q $end
$var wire 1 f! M1|D1|IC_4|Add0~0_combout $end
$var wire 1 g! M1|D1|IC_4|Qout[3]~4_combout $end
$var wire 1 h! M1|D1|IC_4|Qout[3]~reg0DUPLICATE_q $end
$var wire 1 i! M1|D1|IC_4|Qout[0]~0_combout $end
$var wire 1 j! M1|D1|IC_4|Qout[0]~reg0_q $end
$var wire 1 k! R1|Q[12]~feeder_combout $end
$var wire 1 l! R1|Q[12]~DUPLICATE_q $end
$var wire 1 m! R1|IQ[13]~feeder_combout $end
$var wire 1 n! R1|Q[13]~feeder_combout $end
$var wire 1 o! R1|IQ[14]~feeder_combout $end
$var wire 1 p! R1|Q[14]~feeder_combout $end
$var wire 1 q! R1|Q[14]~DUPLICATE_q $end
$var wire 1 r! R1|Q[15]~feeder_combout $end
$var wire 1 s! C1|WideNor1~combout $end
$var wire 1 t! C1|WideNor0~combout $end
$var wire 1 u! D4|Mux6~0_combout $end
$var wire 1 v! D4|Mux5~0_combout $end
$var wire 1 w! D4|Mux4~0_combout $end
$var wire 1 x! D4|Mux3~0_combout $end
$var wire 1 y! D4|Mux2~0_combout $end
$var wire 1 z! D4|Mux1~0_combout $end
$var wire 1 {! D4|Mux0~0_combout $end
$var wire 1 |! D3|Mux6~0_combout $end
$var wire 1 }! D3|Mux5~0_combout $end
$var wire 1 ~! D3|Mux4~0_combout $end
$var wire 1 !" D3|Mux3~0_combout $end
$var wire 1 "" D3|Mux2~0_combout $end
$var wire 1 #" D3|Mux1~0_combout $end
$var wire 1 $" D3|Mux0~0_combout $end
$var wire 1 %" D2|Mux6~0_combout $end
$var wire 1 &" D2|Mux5~0_combout $end
$var wire 1 '" D2|Mux4~0_combout $end
$var wire 1 (" D2|Mux3~0_combout $end
$var wire 1 )" D2|Mux2~0_combout $end
$var wire 1 *" D2|Mux1~0_combout $end
$var wire 1 +" D2|Mux0~0_combout $end
$var wire 1 ," D1|Mux6~0_combout $end
$var wire 1 -" D1|Mux5~0_combout $end
$var wire 1 ." D1|Mux4~0_combout $end
$var wire 1 /" D1|Mux3~0_combout $end
$var wire 1 0" D1|Mux2~0_combout $end
$var wire 1 1" D1|Mux1~0_combout $end
$var wire 1 2" D1|Mux0~0_combout $end
$var wire 1 3" R1|Q [15] $end
$var wire 1 4" R1|Q [14] $end
$var wire 1 5" R1|Q [13] $end
$var wire 1 6" R1|Q [12] $end
$var wire 1 7" R1|Q [11] $end
$var wire 1 8" R1|Q [10] $end
$var wire 1 9" R1|Q [9] $end
$var wire 1 :" R1|Q [8] $end
$var wire 1 ;" R1|Q [7] $end
$var wire 1 <" R1|Q [6] $end
$var wire 1 =" R1|Q [5] $end
$var wire 1 >" R1|Q [4] $end
$var wire 1 ?" R1|Q [3] $end
$var wire 1 @" R1|Q [2] $end
$var wire 1 A" R1|Q [1] $end
$var wire 1 B" R1|Q [0] $end
$var wire 1 C" R1|IQ [15] $end
$var wire 1 D" R1|IQ [14] $end
$var wire 1 E" R1|IQ [13] $end
$var wire 1 F" R1|IQ [12] $end
$var wire 1 G" R1|IQ [11] $end
$var wire 1 H" R1|IQ [10] $end
$var wire 1 I" R1|IQ [9] $end
$var wire 1 J" R1|IQ [8] $end
$var wire 1 K" R1|IQ [7] $end
$var wire 1 L" R1|IQ [6] $end
$var wire 1 M" R1|IQ [5] $end
$var wire 1 N" R1|IQ [4] $end
$var wire 1 O" R1|IQ [3] $end
$var wire 1 P" R1|IQ [2] $end
$var wire 1 Q" R1|IQ [1] $end
$var wire 1 R" R1|IQ [0] $end
$upscope $end
$upscope $end
$enddefinitions $end
#0
$dumpvars
0!
0"
0#
1$
0%
0&
06
05
04
03
02
01
00
0/
0.
0-
0,
0+
0*
0)
0(
0'
1R
0Q
0P
0O
0N
0M
0L
1K
0J
0I
0H
0G
0F
0E
1D
0C
0B
0A
0@
0?
0>
1=
0<
0;
0:
09
08
07
0S
0T
0d
0c
0b
0a
0`
0_
0^
0]
0\
0[
0Z
0Y
0X
0W
0V
0U
0e
0f
1g
xh
1i
1j
1k
0l
0m
0n
0o
1p
0q
0r
0s
0t
0u
0v
0w
0x
0y
0z
0{
0|
0}
0~
0!!
0"!
0#!
0$!
0%!
0&!
0'!
0(!
0)!
0*!
0+!
0,!
0-!
0.!
1/!
00!
01!
02!
03!
04!
05!
06!
07!
08!
09!
0:!
0;!
0<!
0=!
0>!
0?!
0@!
1A!
0B!
0C!
0D!
0E!
0F!
0G!
0H!
0I!
0J!
0K!
0L!
0M!
0N!
0O!
1P!
0Q!
0R!
0S!
0T!
0U!
0V!
0W!
0X!
0Y!
0Z!
0[!
0\!
0]!
0^!
0_!
1`!
0a!
0b!
0c!
0d!
0e!
0f!
0g!
0h!
0i!
0j!
0k!
0l!
0m!
0n!
0o!
0p!
0q!
0r!
0s!
0t!
0u!
0v!
0w!
0x!
0y!
0z!
0{!
0|!
0}!
0~!
0!"
0""
0#"
0$"
0%"
0&"
0'"
0("
0)"
0*"
0+"
0,"
0-"
0."
0/"
00"
01"
02"
0B"
0A"
0@"
0?"
0>"
0="
0<"
0;"
0:"
09"
08"
07"
06"
05"
04"
03"
0R"
0Q"
0P"
0O"
0N"
0M"
0L"
0K"
0J"
0I"
0H"
0G"
0F"
0E"
0D"
0C"
$end
#500
1!
1m
1n
#1000
0!
0m
0n
#1500
1!
1m
1n
#2000
0!
0m
0n
#2500
1!
1m
1n
#3000
0!
0m
0n
#3500
1!
1m
1n
#4000
0!
0m
0n
#4500
1!
1m
1n
#5000
0!
0m
0n
#5500
1!
1m
1n
#6000
0!
0m
0n
#6500
1!
1m
1n
#7000
0!
0m
0n
#7500
1!
1m
1n
#8000
0!
0m
0n
#8500
1!
1m
1n
#9000
0!
0m
0n
#9500
1!
1m
1n
#10000
1"
0$
0!
1v
0p
0m
0n
1%!
1#!
#10500
1!
1m
1n
1&!
1$!
1*!
1'!
0%!
1t!
1T
#11000
0!
0m
0n
#11500
1!
1m
1n
1+!
1(!
0&!
0/!
1-!
0`!
0P!
0A!
#12000
0!
0m
0n
#12500
1!
1m
1n
#13000
0!
0m
0n
#13500
1!
1m
1n
#14000
0!
0m
0n
#14500
1!
1m
1n
#15000
0!
0m
0n
#15500
1!
1m
1n
#16000
0!
0m
0n
#16500
1!
1m
1n
#17000
0!
0m
0n
#17500
1!
1m
1n
#18000
0!
0m
0n
#18500
1!
1m
1n
#19000
0!
0m
0n
#19500
1!
1m
1n
#20000
0!
0m
0n
#20500
1!
1m
1n
#21000
0!
0m
0n
#21500
1!
1m
1n
#22000
0!
0m
0n
#22500
1!
1m
1n
#23000
0!
0m
0n
#23500
1!
1m
1n
#24000
0!
0m
0n
#24500
1!
1m
1n
#25000
0!
0m
0n
#25500
1!
1m
1n
#26000
0!
0m
0n
#26500
1!
1m
1n
#27000
0!
0m
0n
#27500
1!
1m
1n
#28000
0!
0m
0n
#28500
1!
1m
1n
#29000
0!
0m
0n
#29500
1!
1m
1n
#30000
0!
0m
0n
#30500
1!
1m
1n
#31000
0!
0m
0n
#31500
1!
1m
1n
#32000
0!
0m
0n
#32500
1!
1m
1n
#33000
0!
0m
0n
#33500
1!
1m
1n
#34000
0!
0m
0n
#34500
1!
1m
1n
#35000
0!
0m
0n
#35500
1!
1m
1n
#36000
0!
0m
0n
#36500
1!
1m
1n
#37000
0!
0m
0n
#37500
1!
1m
1n
#38000
0!
0m
0n
#38500
1!
1m
1n
#39000
0!
0m
0n
#39500
1!
1m
1n
#40000
0!
0m
0n
#40500
1!
1m
1n
#41000
0!
0m
0n
#41500
1!
1m
1n
#42000
0!
0m
0n
#42500
1!
1m
1n
#43000
0!
0m
0n
#43500
1!
1m
1n
#44000
0!
0m
0n
#44500
1!
1m
1n
#45000
0!
0m
0n
#45500
1!
1m
1n
#46000
0!
0m
0n
#46500
1!
1m
1n
#47000
0!
0m
0n
#47500
1!
1m
1n
#48000
0!
0m
0n
#48500
1!
1m
1n
#49000
0!
0m
0n
#49500
1!
1m
1n
#50000
0!
0m
0n
#50500
1!
1m
1n
#51000
0!
0m
0n
#51500
1!
1m
1n
#52000
0!
0m
0n
#52500
1!
1m
1n
#53000
0!
0m
0n
#53500
1!
1m
1n
#54000
0!
0m
0n
#54500
1!
1m
1n
#55000
0!
0m
0n
#55500
1!
1m
1n
#56000
0!
0m
0n
#56500
1!
1m
1n
#57000
0!
0m
0n
#57500
1!
1m
1n
#58000
0!
0m
0n
#58500
1!
1m
1n
#59000
0!
0m
0n
#59500
1!
1m
1n
#60000
0!
0m
0n
#60500
1!
1m
1n
#61000
0!
0m
0n
#61500
1!
1m
1n
#62000
0!
0m
0n
#62500
1!
1m
1n
#63000
0!
0m
0n
#63500
1!
1m
1n
#64000
0!
0m
0n
#64500
1!
1m
1n
#65000
0!
0m
0n
#65500
1!
1m
1n
#66000
0!
0m
0n
#66500
1!
1m
1n
#67000
0!
0m
0n
#67500
1!
1m
1n
#68000
0!
0m
0n
#68500
1!
1m
1n
#69000
0!
0m
0n
#69500
1!
1m
1n
#70000
0!
0m
0n
#70500
1!
1m
1n
#71000
0!
0m
0n
#71500
1!
1m
1n
#72000
0!
0m
0n
#72500
1!
1m
1n
#73000
0!
0m
0n
#73500
1!
1m
1n
#74000
0!
0m
0n
#74500
1!
1m
1n
#75000
0!
0m
0n
#75500
1!
1m
1n
#76000
0!
0m
0n
#76500
1!
1m
1n
#77000
0!
0m
0n
#77500
1!
1m
1n
#78000
0!
0m
0n
#78500
1!
1m
1n
#79000
0!
0m
0n
#79500
1!
1m
1n
#80000
0!
0m
0n
#80500
1!
1m
1n
#81000
0!
0m
0n
#81500
1!
1m
1n
#82000
0!
0m
0n
#82500
1!
1m
1n
#83000
0!
0m
0n
#83500
1!
1m
1n
#84000
0!
0m
0n
#84500
1!
1m
1n
#85000
0!
0m
0n
#85500
1!
1m
1n
#86000
0!
0m
0n
#86500
1!
1m
1n
#87000
0!
0m
0n
#87500
1!
1m
1n
#88000
0!
0m
0n
#88500
1!
1m
1n
#89000
0!
0m
0n
#89500
1!
1m
1n
#90000
0!
0m
0n
#90500
1!
1m
1n
#91000
0!
0m
0n
#91500
1!
1m
1n
#92000
0!
0m
0n
#92500
1!
1m
1n
#93000
0!
0m
0n
#93500
1!
1m
1n
#94000
0!
0m
0n
#94500
1!
1m
1n
#95000
0!
0m
0n
#95500
1!
1m
1n
#96000
0!
0m
0n
#96500
1!
1m
1n
#97000
0!
0m
0n
#97500
1!
1m
1n
#98000
0!
0m
0n
#98500
1!
1m
1n
#99000
0!
0m
0n
#99500
1!
1m
1n
#100000
0!
0m
0n
#100500
1!
1m
1n
#101000
0!
0m
0n
#101500
1!
1m
1n
#102000
0!
0m
0n
#102500
1!
1m
1n
#103000
0!
0m
0n
#103500
1!
1m
1n
#104000
0!
0m
0n
#104500
1!
1m
1n
#105000
0!
0m
0n
#105500
1!
1m
1n
#106000
0!
0m
0n
#106500
1!
1m
1n
#107000
0!
0m
0n
#107500
1!
1m
1n
#108000
0!
0m
0n
#108500
1!
1m
1n
#109000
0!
0m
0n
#109500
1!
1m
1n
#110000
0!
0m
0n
#110500
1!
1m
1n
#111000
0!
0m
0n
#111500
1!
1m
1n
#112000
0!
0m
0n
#112500
1!
1m
1n
#113000
0!
0m
0n
#113500
1!
1m
1n
#114000
0!
0m
0n
#114500
1!
1m
1n
#115000
0!
0m
0n
#115500
1!
1m
1n
#116000
0!
0m
0n
#116500
1!
1m
1n
#117000
0!
0m
0n
#117500
1!
1m
1n
#118000
0!
0m
0n
#118500
1!
1m
1n
#119000
0!
0m
0n
#119500
1!
1m
1n
#120000
0!
0m
0n
#120500
1!
1m
1n
#121000
0!
0m
0n
#121500
1!
1m
1n
#122000
0!
0m
0n
#122500
1!
1m
1n
#123000
0!
0m
0n
#123500
1!
1m
1n
#124000
0!
0m
0n
#124500
1!
1m
1n
#125000
0!
0m
0n
#125500
1!
1m
1n
#126000
0!
0m
0n
#126500
1!
1m
1n
#127000
0!
0m
0n
#127500
1!
1m
1n
#128000
0!
0m
0n
#128500
1!
1m
1n
#129000
0!
0m
0n
#129500
1!
1m
1n
#130000
0!
0m
0n
#130500
1!
1m
1n
#131000
0!
0m
0n
#131500
1!
1m
1n
#132000
0!
0m
0n
#132500
1!
1m
1n
#133000
0!
0m
0n
#133500
1!
1m
1n
#134000
0!
0m
0n
#134500
1!
1m
1n
#135000
0!
0m
0n
#135500
1!
1m
1n
#136000
0!
0m
0n
#136500
1!
1m
1n
#137000
0!
0m
0n
#137500
1!
1m
1n
#138000
0!
0m
0n
#138500
1!
1m
1n
#139000
0!
0m
0n
#139500
1!
1m
1n
#140000
0!
0m
0n
#140500
1!
1m
1n
#141000
0!
0m
0n
#141500
1!
1m
1n
#142000
0!
0m
0n
#142500
1!
1m
1n
#143000
0!
0m
0n
#143500
1!
1m
1n
#144000
0!
0m
0n
#144500
1!
1m
1n
#145000
0!
0m
0n
#145500
1!
1m
1n
#146000
0!
0m
0n
#146500
1!
1m
1n
#147000
0!
0m
0n
#147500
1!
1m
1n
#148000
0!
0m
0n
#148500
1!
1m
1n
#149000
0!
0m
0n
#149500
1!
1m
1n
#150000
0!
0m
0n
#150500
1!
1m
1n
#151000
0!
0m
0n
#151500
1!
1m
1n
#152000
0!
0m
0n
#152500
1!
1m
1n
#153000
0!
0m
0n
#153500
1!
1m
1n
#154000
0!
0m
0n
#154500
1!
1m
1n
#155000
0!
0m
0n
#155500
1!
1m
1n
#156000
0!
0m
0n
#156500
1!
1m
1n
#157000
0!
0m
0n
#157500
1!
1m
1n
#158000
0!
0m
0n
#158500
1!
1m
1n
#159000
0!
0m
0n
#159500
1!
1m
1n
#160000
1#
0!
1o
0m
0n
1r
#160500
1!
1m
1n
1s
1/!
17!
#161000
0!
0m
0n
#161500
1!
1m
1n
1,!
18!
1d
07!
11!
19!
#162000
0!
0m
0n
#162500
1!
1m
1n
12!
0,!
08!
10!
1c
0d
17!
09!
#163000
0!
0m
0n
#163500
1!
1m
1n
1,!
18!
1d
07!
01!
19!
13!
#164000
0!
0m
0n
#164500
1!
1m
1n
02!
0,!
08!
14!
00!
0c
1b
0d
17!
09!
#165000
0!
0m
0n
#165500
1!
1m
1n
1,!
18!
1d
07!
11!
19!
#166000
0!
0m
0n
#166500
1!
1m
1n
12!
0,!
08!
10!
1c
0d
17!
09!
#167000
0!
0m
0n
#167500
1!
1m
1n
1,!
18!
1d
07!
15!
01!
19!
03!
#168000
0!
0m
0n
#168500
1!
1m
1n
02!
1.!
0,!
08!
16!
04!
00!
0c
0b
1a
0d
17!
1>!
09!
#169000
0!
0m
0n
#169500
1!
1m
1n
1,!
18!
1d
1?!
07!
05!
19!
1A!
1K!
#170000
0!
0m
0n
#170500
1!
1m
1n
1@!
0.!
0,!
1L!
08!
06!
0a
0d
1`
0?!
17!
0K!
0>!
09!
1C!
0A!
1K!
#171000
0!
0m
0n
#171500
1!
1m
1n
1,!
18!
1d
07!
11!
19!
#172000
0!
0m
0n
#172500
1!
1m
1n
12!
0,!
08!
10!
1c
0d
17!
09!
#173000
0!
0m
0n
#173500
1!
1m
1n
1,!
18!
1d
07!
01!
19!
13!
#174000
0!
0m
0n
#174500
1!
1m
1n
02!
0,!
08!
14!
00!
0c
1b
0d
17!
09!
#175000
0!
0m
0n
#175500
1!
1m
1n
1,!
18!
1d
07!
11!
19!
#176000
0!
0m
0n
#176500
1!
1m
1n
12!
0,!
08!
10!
1c
0d
17!
09!
#177000
0!
0m
0n
#177500
1!
1m
1n
1,!
18!
1d
07!
15!
01!
19!
03!
#178000
0!
0m
0n
#178500
1!
1m
1n
02!
1.!
0,!
08!
16!
04!
00!
0c
0b
1a
0d
17!
1>!
09!
#179000
0!
0m
0n
#179500
1!
1m
1n
1,!
18!
1d
1?!
07!
05!
19!
1A!
0K!
#180000
0!
0m
0n
#180500
1!
1m
1n
1D!
0@!
0.!
0,!
0L!
1B!
08!
06!
0a
0d
1_
0`
0?!
17!
1K!
0>!
09!
0A!
0K!
#181000
0!
0m
0n
#181500
1!
1m
1n
1,!
18!
1d
07!
11!
19!
#182000
0!
0m
0n
#182500
1!
1m
1n
12!
0,!
08!
10!
1c
0d
17!
09!
#183000
0!
0m
0n
#183500
1!
1m
1n
1,!
18!
1d
07!
01!
19!
13!
#184000
0!
0m
0n
#184500
1!
1m
1n
02!
0,!
08!
14!
00!
0c
1b
0d
17!
09!
#185000
0!
0m
0n
#185500
1!
1m
1n
1,!
18!
1d
07!
11!
19!
#186000
0!
0m
0n
#186500
1!
1m
1n
12!
0,!
08!
10!
1c
0d
17!
09!
#187000
0!
0m
0n
#187500
1!
1m
1n
1,!
18!
1d
07!
15!
01!
19!
03!
#188000
0!
0m
0n
#188500
1!
1m
1n
02!
1.!
0,!
08!
16!
04!
00!
0c
0b
1a
0d
17!
1>!
09!
#189000
0!
0m
0n
#189500
1!
1m
1n
1,!
18!
1d
1?!
07!
05!
19!
1A!
1K!
#190000
0!
0m
0n
#190500
1!
1m
1n
1@!
0.!
0,!
1L!
08!
06!
0a
0d
1`
0?!
17!
0K!
0>!
09!
1E!
0C!
0A!
1K!
#191000
0!
0m
0n
#191500
1!
1m
1n
1,!
18!
1d
07!
11!
19!
#192000
0!
0m
0n
#192500
1!
1m
1n
12!
0,!
08!
10!
1c
0d
17!
09!
#193000
0!
0m
0n
#193500
1!
1m
1n
1,!
18!
1d
07!
01!
19!
13!
#194000
0!
0m
0n
#194500
1!
1m
1n
02!
0,!
08!
14!
00!
0c
1b
0d
17!
09!
#195000
0!
0m
0n
#195500
1!
1m
1n
1,!
18!
1d
07!
11!
19!
#196000
0!
0m
0n
#196500
1!
1m
1n
12!
0,!
08!
10!
1c
0d
17!
09!
#197000
0!
0m
0n
#197500
1!
1m
1n
1,!
18!
1d
07!
15!
01!
19!
03!
#198000
0!
0m
0n
#198500
1!
1m
1n
02!
1.!
0,!
08!
16!
04!
00!
0c
0b
1a
0d
17!
1>!
09!
#199000
0!
0m
0n
#199500
1!
1m
1n
1,!
18!
1d
1?!
07!
05!
19!
1A!
0K!
#200000
0!
0m
0n
#200500
1!
1m
1n
0D!
0@!
0.!
0,!
0L!
1F!
0B!
08!
06!
0a
0d
0_
1^
0`
0?!
17!
1K!
0>!
09!
1M!
0A!
0K!
#201000
0!
0m
0n
#201500
1!
1m
1n
1,!
18!
1d
07!
11!
19!
#202000
0!
0m
0n
#202500
1!
1m
1n
12!
0,!
08!
10!
1c
0d
17!
09!
#203000
0!
0m
0n
#203500
1!
1m
1n
1,!
18!
1d
07!
01!
19!
13!
#204000
0!
0m
0n
#204500
1!
1m
1n
02!
0,!
08!
14!
00!
0c
1b
0d
17!
09!
#205000
0!
0m
0n
#205500
1!
1m
1n
1,!
18!
1d
07!
11!
19!
#206000
0!
0m
0n
#206500
1!
1m
1n
12!
0,!
08!
10!
1c
0d
17!
09!
#207000
0!
0m
0n
#207500
1!
1m
1n
1,!
18!
1d
07!
15!
01!
19!
03!
#208000
0!
0m
0n
#208500
1!
1m
1n
02!
1.!
0,!
08!
16!
04!
00!
0c
0b
1a
0d
17!
1>!
09!
#209000
0!
0m
0n
#209500
1!
1m
1n
1,!
18!
1d
1?!
07!
05!
19!
1A!
1K!
#210000
0!
0m
0n
#210500
1!
1m
1n
1@!
0.!
0,!
1L!
08!
06!
0a
0d
1`
0?!
17!
0K!
0>!
09!
1C!
0A!
1K!
#211000
0!
0m
0n
#211500
1!
1m
1n
1,!
18!
1d
07!
11!
19!
#212000
0!
0m
0n
#212500
1!
1m
1n
12!
0,!
08!
10!
1c
0d
17!
09!
#213000
0!
0m
0n
#213500
1!
1m
1n
1,!
18!
1d
07!
01!
19!
13!
#214000
0!
0m
0n
#214500
1!
1m
1n
02!
0,!
08!
14!
00!
0c
1b
0d
17!
09!
#215000
0!
0m
0n
#215500
1!
1m
1n
1,!
18!
1d
07!
11!
19!
#216000
0!
0m
0n
#216500
1!
1m
1n
12!
0,!
08!
10!
1c
0d
17!
09!
#217000
0!
0m
0n
#217500
1!
1m
1n
1,!
18!
1d
07!
15!
01!
19!
03!
#218000
0!
0m
0n
#218500
1!
1m
1n
02!
1.!
0,!
08!
16!
04!
00!
0c
0b
1a
0d
17!
1>!
09!
#219000
0!
0m
0n
#219500
1!
1m
1n
1,!
18!
1d
1?!
07!
05!
19!
1A!
0K!
#220000
0!
0m
0n
#220500
1!
1m
1n
1D!
0@!
0.!
0,!
0L!
1B!
08!
06!
0a
0d
1_
0`
0?!
17!
1K!
0>!
09!
0A!
0K!
#221000
0!
0m
0n
#221500
1!
1m
1n
1,!
18!
1d
07!
11!
19!
#222000
0!
0m
0n
#222500
1!
1m
1n
12!
0,!
08!
10!
1c
0d
17!
09!
#223000
0!
0m
0n
#223500
1!
1m
1n
1,!
18!
1d
07!
01!
19!
13!
#224000
0!
0m
0n
#224500
1!
1m
1n
02!
0,!
08!
14!
00!
0c
1b
0d
17!
09!
#225000
0!
0m
0n
#225500
1!
1m
1n
1,!
18!
1d
07!
11!
19!
#226000
0!
0m
0n
#226500
1!
1m
1n
12!
0,!
08!
10!
1c
0d
17!
09!
#227000
0!
0m
0n
#227500
1!
1m
1n
1,!
18!
1d
07!
15!
01!
19!
03!
#228000
0!
0m
0n
