Experimento5/simulation/qsim/Experimento5.msim.vcd
$comment
	File created using the following command:
		vcd file Experimento5.msim.vcd -direction
$end
$date
	Mon Mar  6 10:58:14 2017
$end
$version
	ModelSim Version 10.4b
$end
$timescale
	1ps
$end

$scope module Experimento5_vlg_vec_tst $end
$var reg 1 ! clock $end
$var reg 1 " iniciar $end
$var reg 1 # pulso $end
$var reg 1 $ reset $end
$var reg 1 % zerar $end
$var wire 1 & fim $end
$var wire 1 ' saida [15] $end
$var wire 1 ( saida [14] $end
$var wire 1 ) saida [13] $end
$var wire 1 * saida [12] $end
$var wire 1 + saida [11] $end
$var wire 1 , saida [10] $end
$var wire 1 - saida [9] $end
$var wire 1 . saida [8] $end
$var wire 1 / saida [7] $end
$var wire 1 0 saida [6] $end
$var wire 1 1 saida [5] $end
$var wire 1 2 saida [4] $end
$var wire 1 3 saida [3] $end
$var wire 1 4 saida [2] $end
$var wire 1 5 saida [1] $end
$var wire 1 6 saida [0] $end
$var wire 1 7 sig_medida [15] $end
$var wire 1 8 sig_medida [14] $end
$var wire 1 9 sig_medida [13] $end
$var wire 1 : sig_medida [12] $end
$var wire 1 ; sig_medida [11] $end
$var wire 1 < sig_medida [10] $end
$var wire 1 = sig_medida [9] $end
$var wire 1 > sig_medida [8] $end
$var wire 1 ? sig_medida [7] $end
$var wire 1 @ sig_medida [6] $end
$var wire 1 A sig_medida [5] $end
$var wire 1 B sig_medida [4] $end
$var wire 1 C sig_medida [3] $end
$var wire 1 D sig_medida [2] $end
$var wire 1 E sig_medida [1] $end
$var wire 1 F sig_medida [0] $end

$scope module i1 $end
$var wire 1 G gnd $end
$var wire 1 H vcc $end
$var wire 1 I unknown $end
$var tri1 1 J devclrn $end
$var tri1 1 K devpor $end
$var tri1 1 L devoe $end
$var wire 1 M ~QUARTUS_CREATED_GND~I_combout $end
$var wire 1 N clock~input_o $end
$var wire 1 O clock~inputCLKENA0_outclk $end
$var wire 1 P pulso~input_o $end
$var wire 1 Q M1|C1|Eprox.EPRONTO~0_combout $end
$var wire 1 R reset~input_o $end
$var wire 1 S M1|C1|Ereg.EPRONTO~q $end
$var wire 1 T M1|C1|Ereg.LIMPA~q $end
$var wire 1 U iniciar~input_o $end
$var wire 1 V zerar~input_o $end
$var wire 1 W C1|Selector1~0_combout $end
$var wire 1 X C1|Ereg.zera~q $end
$var wire 1 Y C1|Selector2~0_combout $end
$var wire 1 Z C1|Ereg.medindo~q $end
$var wire 1 [ C1|Eprox.registra~0_combout $end
$var wire 1 \ C1|Ereg.registra~DUPLICATE_q $end
$var wire 1 ] C1|Ereg.soma~q $end
$var wire 1 ^ C1|Ereg.esperasoma~q $end
$var wire 1 _ C1|Selector3~0_combout $end
$var wire 1 ` C1|Ereg.espera~q $end
$var wire 1 a C1|Selector0~0_combout $end
$var wire 1 b C1|Ereg.parado~q $end
$var wire 1 c C1|Eprox.iniciado~0_combout $end
$var wire 1 d C1|Ereg.iniciado~q $end
$var wire 1 e M1|C1|Ereg.INICIAL~q $end
$var wire 1 f M1|C1|Ereg.LIMPA~DUPLICATE_q $end
$var wire 1 g M1|C1|Selector0~0_combout $end
$var wire 1 h M1|C1|Ereg.INICIAL~DUPLICATE_q $end
$var wire 1 i M1|C1|Eprox.CONTA~1_combout $end
$var wire 1 j M1|C1|Ereg.CONTA~q $end
$var wire 1 k M1|D2|C1|IQ[0]~DUPLICATE_q $end
$var wire 1 l M1|D2|C1|IQ[1]~2_combout $end
$var wire 1 m M1|D2|C1|IQ[2]~3_combout $end
$var wire 1 n M1|C1|Eprox.CONTA~0_combout $end
$var wire 1 o M1|D2|C1|IQ[3]~4_combout $end
$var wire 1 p M1|D2|C1|IQ[3]~DUPLICATE_q $end
$var wire 1 q M1|D2|C1|IQ[2]~0_combout $end
$var wire 1 r M1|D2|C1|IQ[0]~1_combout $end
$var wire 1 s C1|Ereg.registra~q $end
$var wire 1 t C1|Ereg.esperasoma~DUPLICATE_q $end
$var wire 1 u R1|IQ[15]~0_combout $end
$var wire 1 v R1|process_0~0_combout $end
$var wire 1 w M1|D2|C1|IQ[1]~DUPLICATE_q $end
$var wire 1 x R1|IQ[1]~feeder_combout $end
$var wire 1 y M1|D2|C1|IQ[2]~DUPLICATE_q $end
$var wire 1 z R1|IQ[2]~feeder_combout $end
$var wire 1 { R1|Q[2]~feeder_combout $end
$var wire 1 | M1|D2|C2|IQ[2]~0_combout $end
$var wire 1 } M1|D2|C2|IQ[1]~2_combout $end
$var wire 1 ~ M1|D2|C2|IQ[1]~DUPLICATE_q $end
$var wire 1 !! M1|D2|C2|IQ[3]~4_combout $end
$var wire 1 "! M1|D2|C2|IQ[3]~DUPLICATE_q $end
$var wire 1 #! M1|D2|C2|IQ[2]~3_combout $end
$var wire 1 $! M1|D2|C2|LessThan0~0_combout $end
$var wire 1 %! M1|D2|C2|IQ[0]~1_combout $end
$var wire 1 &! R1|IQ[4]~feeder_combout $end
$var wire 1 '! R1|Q[5]~feeder_combout $end
$var wire 1 (! R1|IQ[6]~feeder_combout $end
$var wire 1 )! R1|Q[6]~feeder_combout $end
$var wire 1 *! R1|Q[7]~feeder_combout $end
$var wire 1 +! M1|D2|C3|IQ[1]~2_combout $end
$var wire 1 ,! M1|D2|C3|IQ[2]~3_combout $end
$var wire 1 -! M1|D2|C3|Add0~0_combout $end
$var wire 1 .! M1|D2|C3|IQ[3]~4_combout $end
$var wire 1 /! M1|D2|C3|IQ[2]~DUPLICATE_q $end
$var wire 1 0! M1|D2|C3|IQ[3]~0_combout $end
$var wire 1 1! M1|D2|C3|IQ[0]~1_combout $end
$var wire 1 2! M1|D2|C3|IQ[0]~DUPLICATE_q $end
$var wire 1 3! R1|IQ[8]~feeder_combout $end
$var wire 1 4! R1|Q[9]~feeder_combout $end
$var wire 1 5! R1|Q[10]~feeder_combout $end
$var wire 1 6! R1|IQ[11]~feeder_combout $end
$var wire 1 7! R1|Q[11]~feeder_combout $end
$var wire 1 8! M1|D2|C3|LessThan0~0_combout $end
$var wire 1 9! M1|D2|C4|IQ[1]~2_combout $end
$var wire 1 :! M1|D2|C4|IQ[1]~DUPLICATE_q $end
$var wire 1 ;! M1|D2|C4|IQ[0]~DUPLICATE_q $end
$var wire 1 <! M1|D2|C4|Add0~0_combout $end
$var wire 1 =! M1|D2|C4|IQ[2]~3_combout $end
$var wire 1 >! M1|D2|C4|IQ[2]~DUPLICATE_q $end
$var wire 1 ?! M1|D2|C4|Add0~1_combout $end
$var wire 1 @! M1|D2|C4|IQ[3]~4_combout $end
$var wire 1 A! M1|D2|C4|IQ[3]~0_combout $end
$var wire 1 B! M1|D2|C4|IQ[0]~1_combout $end
$var wire 1 C! R1|IQ[12]~feeder_combout $end
$var wire 1 D! R1|IQ[13]~feeder_combout $end
$var wire 1 E! R1|Q[14]~feeder_combout $end
$var wire 1 F! M1|D2|C4|IQ[3]~DUPLICATE_q $end
$var wire 1 G! R1|IQ[15]~feeder_combout $end
$var wire 1 H! R1|Q[15]~feeder_combout $end
$var wire 1 I! M1|D2|C4|IQ [3] $end
$var wire 1 J! M1|D2|C4|IQ [2] $end
$var wire 1 K! M1|D2|C4|IQ [1] $end
$var wire 1 L! M1|D2|C4|IQ [0] $end
$var wire 1 M! M1|D2|C3|IQ [3] $end
$var wire 1 N! M1|D2|C3|IQ [2] $end
$var wire 1 O! M1|D2|C3|IQ [1] $end
$var wire 1 P! M1|D2|C3|IQ [0] $end
$var wire 1 Q! M1|D2|C1|IQ [3] $end
$var wire 1 R! M1|D2|C1|IQ [2] $end
$var wire 1 S! M1|D2|C1|IQ [1] $end
$var wire 1 T! M1|D2|C1|IQ [0] $end
$var wire 1 U! R1|Q [15] $end
$var wire 1 V! R1|Q [14] $end
$var wire 1 W! R1|Q [13] $end
$var wire 1 X! R1|Q [12] $end
$var wire 1 Y! R1|Q [11] $end
$var wire 1 Z! R1|Q [10] $end
$var wire 1 [! R1|Q [9] $end
$var wire 1 \! R1|Q [8] $end
$var wire 1 ]! R1|Q [7] $end
$var wire 1 ^! R1|Q [6] $end
$var wire 1 _! R1|Q [5] $end
$var wire 1 `! R1|Q [4] $end
$var wire 1 a! R1|Q [3] $end
$var wire 1 b! R1|Q [2] $end
$var wire 1 c! R1|Q [1] $end
$var wire 1 d! R1|Q [0] $end
$var wire 1 e! M1|D2|C2|IQ [3] $end
$var wire 1 f! M1|D2|C2|IQ [2] $end
$var wire 1 g! M1|D2|C2|IQ [1] $end
$var wire 1 h! M1|D2|C2|IQ [0] $end
$var wire 1 i! R1|IQ [15] $end
$var wire 1 j! R1|IQ [14] $end
$var wire 1 k! R1|IQ [13] $end
$var wire 1 l! R1|IQ [12] $end
$var wire 1 m! R1|IQ [11] $end
$var wire 1 n! R1|IQ [10] $end
$var wire 1 o! R1|IQ [9] $end
$var wire 1 p! R1|IQ [8] $end
$var wire 1 q! R1|IQ [7] $end
$var wire 1 r! R1|IQ [6] $end
$var wire 1 s! R1|IQ [5] $end
$var wire 1 t! R1|IQ [4] $end
$var wire 1 u! R1|IQ [3] $end
$var wire 1 v! R1|IQ [2] $end
$var wire 1 w! R1|IQ [1] $end
$var wire 1 x! R1|IQ [0] $end
$upscope $end
$upscope $end
$enddefinitions $end
#0
$dumpvars
0!
1"
0#
0$
0%
0&
06
05
04
03
02
01
00
0/
0.
0-
0,
0+
0*
0)
0(
0'
0F
0E
0D
0C
0B
0A
0@
0?
0>
0=
0<
0;
0:
09
08
07
0G
1H
xI
1J
1K
1L
0M
0N
0O
0P
0Q
0R
0S
0T
1U
0V
0W
0X
0Y
0Z
0[
0\
0]
0^
0_
0`
1a
0b
1c
0d
0e
0f
0g
0h
0i
0j
0k
0l
0m
0n
0o
0p
0q
0r
0s
0t
0u
0v
0w
0x
0y
0z
0{
0|
0}
0~
0!!
0"!
0#!
0$!
0%!
0&!
0'!
0(!
0)!
0*!
0+!
0,!
0-!
0.!
0/!
00!
01!
02!
03!
04!
05!
06!
07!
08!
09!
0:!
0;!
0<!
0=!
0>!
0?!
0@!
0A!
0B!
0C!
0D!
0E!
0F!
0G!
0H!
0L!
0K!
0J!
0I!
0P!
0O!
0N!
0M!
0T!
0S!
0R!
0Q!
0d!
0c!
0b!
0a!
0`!
0_!
0^!
0]!
0\!
0[!
0Z!
0Y!
0X!
0W!
0V!
0U!
0h!
0g!
0f!
0e!
0x!
0w!
0v!
0u!
0t!
0s!
0r!
0q!
0p!
0o!
0n!
0m!
0l!
0k!
0j!
0i!
$end
#500
1!
1N
1O
1d
1b
0c
1g
1Y
#1000
0!
0N
0O
#1500
1!
1N
1O
1h
1e
0d
1Z
1A!
10!
1q
1n
#2000
0!
0N
0O
#2500
1!
1N
1O
#3000
0!
0N
0O
#3500
1!
1N
1O
#4000
0!
0N
0O
#4500
1!
1N
1O
#5000
0!
0N
0O
#5500
1!
1N
1O
#6000
0!
0N
0O
#6500
1!
1N
1O
#7000
0!
0N
0O
#7500
1!
1N
1O
#8000
0!
0N
0O
#8500
1!
1N
1O
#9000
0!
0N
0O
#9500
1!
1N
1O
#10000
0!
0N
0O
#10500
1!
1N
1O
#11000
0!
0N
0O
#11500
1!
1N
1O
#12000
0!
0N
0O
#12500
1!
1N
1O
#13000
0!
0N
0O
#13500
1!
1N
1O
#14000
0!
0N
0O
#14500
1!
1N
1O
#15000
0!
0N
0O
#15500
1!
1N
1O
#16000
0!
0N
0O
#16500
1!
1N
1O
#17000
0!
0N
0O
#17500
1!
1N
1O
#18000
0!
0N
0O
#18500
1!
1N
1O
#19000
0!
0N
0O
#19500
1!
1N
1O
#20000
0!
0N
0O
#20500
1!
1N
1O
#21000
0!
0N
0O
#21500
1!
1N
1O
#22000
0!
0N
0O
#22500
1!
1N
1O
#23000
0!
0N
0O
#23500
1!
1N
1O
#24000
0!
0N
0O
#24500
1!
1N
1O
#25000
0!
0N
0O
#25500
1!
1N
1O
#26000
0!
0N
0O
#26500
1!
1N
1O
#27000
0!
0N
0O
#27500
1!
1N
1O
#28000
0!
0N
0O
#28500
1!
1N
1O
#29000
0!
0N
0O
#29500
1!
1N
1O
#30000
0!
0N
0O
#30500
1!
1N
1O
#31000
0!
0N
0O
#31500
1!
1N
1O
#32000
0!
0N
0O
#32500
1!
1N
1O
#33000
0!
0N
0O
#33500
1!
1N
1O
#34000
0!
0N
0O
#34500
1!
1N
1O
#35000
0!
0N
0O
#35500
1!
1N
1O
#36000
0!
0N
0O
#36500
1!
1N
1O
#37000
0!
0N
0O
#37500
1!
1N
1O
#38000
0!
0N
0O
#38500
1!
1N
1O
#39000
0!
0N
0O
#39500
1!
1N
1O
#40000
1#
0!
1P
0N
0O
1i
#40500
1!
1N
1O
1j
1r
#41000
0!
0N
0O
#41500
1!
1N
1O
1k
1T!
1F
0r
1l
#42000
0!
0N
0O
#42500
1!
1N
1O
1S!
0k
1w
0T!
0F
1E
1r
1x
#43000
0!
0N
0O
#43500
1!
1N
1O
1k
1T!
1F
1m
0r
0l
#44000
0!
0N
0O
#44500
1!
1N
1O
1R!
0S!
0k
1y
0w
0T!
0F
0E
1D
1r
0x
1z
#45000
0!
0N
0O
#45500
1!
1N
1O
1k
1T!
1F
0r
1l
#46000
0!
0N
0O
#46500
1!
1N
1O
1S!
0k
1w
0T!
0F
1E
1r
1x
#47000
0!
0N
0O
#47500
1!
1N
1O
1k
1T!
1F
1o
0m
0r
0l
#48000
0!
0N
0O
#48500
1!
1N
1O
1p
0R!
0S!
0k
0y
0w
0T!
1Q!
1C
0F
0E
0D
1r
0x
0z
#49000
0!
0N
0O
#49500
1!
1N
1O
1k
1T!
1F
1|
0q
0o
0r
1l
0l
1%!
#50000
0!
0N
0O
#50500
1!
1N
1O
0p
0k
1h!
0T!
0Q!
0C
0F
1B
0|
1q
1&!
0%!
1}
1r
1%!
0}
#51000
0!
0N
0O
#51500
1!
1N
1O
1k
1T!
1F
0r
1l
#52000
0!
0N
0O
#52500
1!
1N
1O
1S!
0k
1w
0T!
0F
1E
1r
1x
#53000
0!
0N
0O
#53500
1!
1N
1O
1k
1T!
1F
1m
0r
0l
#54000
0!
0N
0O
#54500
1!
1N
1O
1R!
0S!
0k
1y
0w
0T!
0F
0E
1D
1r
0x
1z
#55000
0!
0N
0O
#55500
1!
1N
1O
1k
1T!
1F
0r
1l
#56000
0!
0N
0O
#56500
1!
1N
1O
1S!
0k
1w
0T!
0F
1E
1r
1x
#57000
0!
0N
0O
#57500
1!
1N
1O
1k
1T!
1F
1o
0m
0r
0l
#58000
0!
0N
0O
#58500
1!
1N
1O
1p
0R!
0S!
0k
0y
0w
0T!
1Q!
1C
0F
0E
0D
1r
0x
0z
#59000
0!
0N
0O
#59500
1!
1N
1O
1k
1T!
1F
1|
0q
0o
0r
1l
0l
0%!
1}
#60000
0!
0N
0O
#60500
1!
1N
1O
1g!
0p
0k
0h!
1~
0T!
0Q!
0C
0F
1A
0B
0|
1q
0&!
1%!
1r
0%!
#61000
0!
0N
0O
#61500
1!
1N
1O
1k
1T!
1F
0r
1l
#62000
0!
0N
0O
#62500
1!
1N
1O
1S!
0k
1w
0T!
0F
1E
1r
1x
#63000
0!
0N
0O
#63500
1!
1N
1O
1k
1T!
1F
1m
0r
0l
#64000
0!
0N
0O
#64500
1!
1N
1O
1R!
0S!
0k
1y
0w
0T!
0F
0E
1D
1r
0x
1z
#65000
0!
0N
0O
#65500
1!
1N
1O
1k
1T!
1F
0r
1l
#66000
0!
0N
0O
#66500
1!
1N
1O
1S!
0k
1w
0T!
0F
1E
1r
1x
#67000
0!
0N
0O
#67500
1!
1N
1O
1k
1T!
1F
1o
0m
0r
0l
#68000
0!
0N
0O
#68500
1!
1N
1O
1p
0R!
0S!
0k
0y
0w
0T!
1Q!
1C
0F
0E
0D
1r
0x
0z
#69000
0!
0N
0O
#69500
1!
1N
1O
1k
1T!
1F
1|
0q
0o
0r
1l
0l
1%!
#70000
0!
0N
0O
#70500
1!
1N
1O
0p
0k
1h!
0T!
0Q!
0C
0F
1B
0|
1q
1&!
0%!
1#!
0}
1r
1%!
0#!
1}
#71000
0!
0N
0O
#71500
1!
1N
1O
1k
1T!
1F
0r
1l
#72000
0!
0N
0O
#72500
1!
1N
1O
1S!
0k
1w
0T!
0F
1E
1r
1x
#73000
0!
0N
0O
#73500
1!
1N
1O
1k
1T!
1F
1m
0r
0l
#74000
0!
0N
0O
#74500
1!
1N
1O
1R!
0S!
0k
1y
0w
0T!
0F
0E
1D
1r
0x
1z
#75000
0!
0N
0O
#75500
1!
1N
1O
1k
1T!
1F
0r
1l
#76000
0!
0N
0O
#76500
1!
1N
1O
1S!
0k
1w
0T!
0F
1E
1r
1x
#77000
0!
0N
0O
#77500
1!
1N
1O
1k
1T!
1F
1o
0m
0r
0l
#78000
0!
0N
0O
#78500
1!
1N
1O
1p
0R!
0S!
0k
0y
0w
0T!
1Q!
1C
0F
0E
0D
1r
0x
0z
#79000
0!
0N
0O
#79500
1!
1N
1O
1k
1T!
1F
1|
0q
0o
0r
1l
0l
0%!
1#!
0}
#80000
0!
0N
0O
#80500
1!
1N
1O
0g!
0p
0k
0h!
1f!
0~
0T!
0Q!
0C
0F
0A
1@
0B
0|
1q
1(!
0&!
1%!
1r
0%!
#81000
0!
0N
0O
#81500
1!
1N
1O
1k
1T!
1F
0r
1l
#82000
0!
0N
0O
#82500
1!
1N
1O
1S!
0k
1w
0T!
0F
1E
1r
1x
#83000
0!
0N
0O
#83500
1!
1N
1O
1k
1T!
1F
1m
0r
0l
#84000
0!
0N
0O
#84500
1!
1N
1O
1R!
0S!
0k
1y
0w
0T!
0F
0E
1D
1r
0x
1z
#85000
0!
0N
0O
#85500
1!
1N
1O
1k
1T!
1F
0r
1l
#86000
0!
0N
0O
#86500
1!
1N
1O
1S!
0k
1w
0T!
0F
1E
1r
1x
#87000
0!
0N
0O
#87500
1!
1N
1O
1k
1T!
1F
1o
0m
0r
0l
#88000
0!
0N
0O
#88500
1!
1N
1O
1p
0R!
0S!
0k
0y
0w
0T!
1Q!
1C
0F
0E
0D
1r
0x
0z
#89000
0!
0N
0O
#89500
1!
1N
1O
1k
1T!
1F
1|
0q
0o
0r
1l
0l
1%!
#90000
0!
0N
0O
#90500
1!
1N
1O
0p
0k
1h!
0T!
0Q!
0C
0F
1B
0|
1q
1&!
0%!
1}
1r
1%!
0}
#91000
0!
0N
0O
#91500
1!
1N
1O
1k
1T!
1F
0r
1l
#92000
0!
0N
0O
#92500
1!
1N
1O
1S!
0k
1w
0T!
0F
1E
1r
1x
#93000
0!
0N
0O
#93500
1!
1N
1O
1k
1T!
1F
1m
0r
0l
#94000
0!
0N
0O
#94500
1!
1N
1O
1R!
0S!
0k
1y
0w
0T!
0F
0E
1D
1r
0x
1z
#95000
0!
0N
0O
#95500
1!
1N
1O
1k
1T!
1F
0r
1l
#96000
0!
0N
0O
#96500
1!
1N
1O
1S!
0k
1w
0T!
0F
1E
1r
1x
#97000
0!
0N
0O
#97500
1!
1N
1O
1k
1T!
1F
1o
0m
0r
0l
#98000
0!
0N
0O
#98500
1!
1N
1O
1p
0R!
0S!
0k
0y
0w
0T!
1Q!
1C
0F
0E
0D
1r
0x
0z
#99000
0!
0N
0O
#99500
1!
1N
1O
1k
1T!
1F
1|
0q
0o
0r
1l
0l
0%!
1}
#100000
0!
0N
0O
#100500
1!
1N
1O
1g!
0p
0k
0h!
1~
0T!
0Q!
0C
0F
1A
0B
0|
1q
0&!
1%!
1r
0%!
#101000
0!
0N
0O
#101500
1!
1N
1O
1k
1T!
1F
0r
1l
#102000
0!
0N
0O
#102500
1!
1N
1O
1S!
0k
1w
0T!
0F
1E
1r
1x
#103000
0!
0N
0O
#103500
1!
1N
1O
1k
1T!
1F
1m
0r
0l
#104000
0!
0N
0O
#104500
1!
1N
1O
1R!
0S!
0k
1y
0w
0T!
0F
0E
1D
1r
0x
1z
#105000
0!
0N
0O
#105500
1!
1N
1O
1k
1T!
1F
0r
1l
#106000
0!
0N
0O
#106500
1!
1N
1O
1S!
0k
1w
0T!
0F
1E
1r
1x
#107000
0!
0N
0O
#107500
1!
1N
1O
1k
1T!
1F
1o
0m
0r
0l
#108000
0!
0N
0O
#108500
1!
1N
1O
1p
0R!
0S!
0k
0y
0w
0T!
1Q!
1C
0F
0E
0D
1r
0x
0z
#109000
0!
0N
0O
#109500
1!
1N
1O
1k
1T!
1F
1|
0q
0o
0r
1l
0l
1%!
#110000
0!
0N
0O
#110500
1!
1N
1O
0p
0k
1h!
0T!
0Q!
0C
0F
1B
0|
1q
1&!
0%!
0#!
1!!
0}
1r
1%!
1#!
0!!
1}
#111000
0!
0N
0O
#111500
1!
1N
1O
1k
1T!
1F
0r
1l
#112000
0!
0N
0O
#112500
1!
1N
1O
1S!
0k
1w
0T!
0F
1E
1r
1x
#113000
0!
0N
0O
#113500
1!
1N
1O
1k
1T!
1F
1m
0r
0l
#114000
0!
0N
0O
#114500
1!
1N
1O
1R!
0S!
0k
1y
0w
0T!
0F
0E
1D
1r
0x
1z
#115000
0!
0N
0O
#115500
1!
1N
1O
1k
1T!
1F
0r
1l
#116000
0!
0N
0O
#116500
1!
1N
1O
1S!
0k
1w
0T!
0F
1E
1r
1x
#117000
0!
0N
0O
#117500
1!
1N
1O
1k
1T!
1F
1o
0m
0r
0l
#118000
0!
0N
0O
#118500
1!
1N
1O
1p
0R!
0S!
0k
0y
0w
0T!
1Q!
1C
0F
0E
0D
1r
0x
0z
#119000
0!
0N
0O
#119500
1!
1N
1O
1k
1T!
1F
1|
0q
0o
0r
1l
0l
0%!
0#!
1!!
0}
#120000
0!
0N
0O
#120500
1!
1N
1O
1e!
0g!
0p
0k
0h!
0f!
1"!
0~
0T!
0Q!
0C
0F
0A
1?
0@
0B
0|
1q
0(!
0&!
1%!
1r
0%!
#121000
0!
0N
0O
#121500
1!
1N
1O
1k
1T!
1F
0r
1l
#122000
0!
0N
0O
#122500
1!
1N
1O
1S!
0k
1w
0T!
0F
1E
1r
1x
#123000
0!
0N
0O
#123500
1!
1N
1O
1k
1T!
1F
1m
0r
0l
#124000
0!
0N
0O
#124500
1!
1N
1O
1R!
0S!
0k
1y
0w
0T!
0F
0E
1D
1r
0x
1z
#125000
0!
0N
0O
#125500
1!
1N
1O
1k
1T!
1F
0r
1l
#126000
0!
0N
0O
#126500
1!
1N
1O
1S!
0k
1w
0T!
0F
1E
1r
1x
#127000
0!
0N
0O
#127500
1!
1N
1O
1k
1T!
1F
1o
0m
0r
0l
#128000
0!
0N
0O
#128500
1!
1N
1O
1p
0R!
0S!
0k
0y
0w
0T!
1Q!
1C
0F
0E
0D
1r
0x
0z
#129000
0!
0N
0O
#129500
1!
1N
1O
1k
1T!
1F
1|
0q
0o
0r
1l
0l
1%!
#130000
0!
0N
0O
#130500
1!
1N
1O
0p
0k
1h!
0T!
0Q!
0C
0F
1B
0|
1q
1$!
1&!
0%!
0!!
1}
0}
1r
#131000
0!
0N
0O
#131500
1!
1N
1O
0e!
1k
0h!
0"!
1T!
1F
0?
0B
0$!
0r
1l
0&!
#132000
0!
0N
0O
#132500
1!
1N
1O
1S!
0k
1w
0T!
0F
1E
1r
1x
#133000
0!
0N
0O
#133500
1!
1N
1O
1k
1T!
1F
1m
0r
0l
#134000
0!
0N
0O
#134500
1!
1N
1O
1R!
0S!
0k
1y
0w
0T!
0F
0E
1D
1r
0x
1z
#135000
0!
0N
0O
#135500
1!
1N
1O
1k
1T!
1F
0r
1l
#136000
0!
0N
0O
#136500
1!
1N
1O
1S!
0k
1w
0T!
0F
1E
1r
1x
#137000
0!
0N
0O
#137500
1!
1N
1O
1k
1T!
1F
1o
0m
0r
0l
#138000
0!
0N
0O
#138500
1!
1N
1O
1p
0R!
0S!
0k
0y
0w
0T!
1Q!
1C
0F
0E
0D
1r
0x
0z
#139000
0!
0N
0O
#139500
1!
1N
1O
1k
1T!
1F
1|
0q
0o
0r
1l
0l
1%!
#140000
0!
0N
0O
#140500
1!
1N
1O
0p
0k
1h!
0T!
0Q!
0C
0F
1B
0|
1q
1&!
0%!
1}
1r
1%!
0}
#141000
0!
0N
0O
#141500
1!
1N
1O
1k
1T!
1F
0r
1l
#142000
0!
0N
0O
#142500
1!
1N
1O
1S!
0k
1w
0T!
0F
1E
1r
1x
#143000
0!
0N
0O
#143500
1!
1N
1O
1k
1T!
1F
1m
0r
0l
#144000
0!
0N
0O
#144500
1!
1N
1O
1R!
0S!
0k
1y
0w
0T!
0F
0E
1D
1r
0x
1z
#145000
0!
0N
0O
#145500
1!
1N
1O
1k
1T!
1F
0r
1l
#146000
0!
0N
0O
#146500
1!
1N
1O
1S!
0k
1w
0T!
0F
1E
1r
1x
#147000
0!
0N
0O
#147500
1!
1N
1O
1k
1T!
1F
1o
0m
0r
0l
#148000
0!
0N
0O
#148500
1!
1N
1O
1p
0R!
0S!
0k
0y
0w
0T!
1Q!
1C
0F
0E
0D
1r
0x
0z
#149000
0!
0N
0O
#149500
1!
1N
1O
1k
1T!
1F
1|
0q
0o
0r
1l
0l
0%!
1}
#150000
0!
0N
0O
#150500
1!
1N
1O
1g!
0p
0k
0h!
1~
0T!
0Q!
0C
0F
1A
0B
0|
1q
0&!
1%!
1r
0%!
#151000
0!
0N
0O
#151500
1!
1N
1O
1k
1T!
1F
0r
1l
#152000
0!
0N
0O
#152500
1!
1N
1O
1S!
0k
1w
0T!
0F
1E
1r
1x
#153000
0!
0N
0O
#153500
1!
1N
1O
1k
1T!
1F
1m
0r
0l
#154000
0!
0N
0O
#154500
1!
1N
1O
1R!
0S!
0k
1y
0w
0T!
0F
0E
1D
1r
0x
1z
#155000
0!
0N
0O
#155500
1!
1N
1O
1k
1T!
1F
0r
1l
#156000
0!
0N
0O
#156500
1!
1N
1O
1S!
0k
1w
0T!
0F
1E
1r
1x
#157000
0!
0N
0O
#157500
1!
1N
1O
1k
1T!
1F
1o
0m
0r
0l
#158000
0!
0N
0O
#158500
1!
1N
1O
1p
0R!
0S!
0k
0y
0w
0T!
1Q!
1C
0F
0E
0D
1r
0x
0z
#159000
0!
0N
0O
#159500
1!
1N
1O
1k
1T!
1F
1|
0q
0o
0r
1l
0l
1%!
#160000
0!
0N
0O
#160500
1!
1N
1O
0p
0k
1h!
0T!
0Q!
0C
0F
1B
0|
1q
1&!
0%!
1#!
0}
1r
1%!
0#!
1}
#161000
0!
0N
0O
#161500
1!
1N
1O
1k
1T!
1F
0r
1l
#162000
0!
0N
0O
#162500
1!
1N
1O
1S!
0k
1w
0T!
0F
1E
1r
1x
#163000
0!
0N
0O
#163500
1!
1N
1O
1k
1T!
1F
1m
0r
0l
#164000
0!
0N
0O
#164500
1!
1N
1O
1R!
0S!
0k
1y
0w
0T!
0F
0E
1D
1r
0x
1z
#165000
0!
0N
0O
#165500
1!
1N
1O
1k
1T!
1F
0r
1l
#166000
0!
0N
0O
#166500
1!
1N
1O
1S!
0k
1w
0T!
0F
1E
1r
1x
#167000
0!
0N
0O
#167500
1!
1N
1O
1k
1T!
1F
1o
0m
0r
0l
#168000
0!
0N
0O
#168500
1!
1N
1O
1p
0R!
0S!
0k
0y
0w
0T!
1Q!
1C
0F
0E
0D
1r
0x
0z
#169000
0!
0N
0O
#169500
1!
1N
1O
1k
1T!
1F
1|
0q
0o
0r
1l
0l
0%!
1#!
0}
#170000
0!
0N
0O
#170500
1!
1N
1O
0g!
0p
0k
0h!
1f!
0~
0T!
0Q!
0C
0F
0A
1@
0B
0|
1q
1(!
0&!
1%!
1r
0%!
#171000
0!
0N
0O
#171500
1!
1N
1O
1k
1T!
1F
0r
1l
#172000
0!
0N
0O
#172500
1!
1N
1O
1S!
0k
1w
0T!
0F
1E
1r
1x
#173000
0!
0N
0O
#173500
1!
1N
1O
1k
1T!
1F
1m
0r
0l
#174000
0!
0N
0O
#174500
1!
1N
1O
1R!
0S!
0k
1y
0w
0T!
0F
0E
1D
1r
0x
1z
#175000
0!
0N
0O
#175500
1!
1N
1O
1k
1T!
1F
0r
1l
#176000
0!
0N
0O
#176500
1!
1N
1O
1S!
0k
1w
0T!
0F
1E
1r
1x
#177000
0!
0N
0O
#177500
1!
1N
1O
1k
1T!
1F
1o
0m
0r
0l
#178000
0!
0N
0O
#178500
1!
1N
1O
1p
0R!
0S!
0k
0y
0w
0T!
1Q!
1C
0F
0E
0D
1r
0x
0z
#179000
0!
0N
0O
#179500
1!
1N
1O
1k
1T!
1F
1|
0q
0o
0r
1l
0l
1%!
#180000
0!
0N
0O
#180500
1!
1N
1O
0p
0k
1h!
0T!
0Q!
0C
0F
1B
0|
1q
1&!
0%!
1}
1r
1%!
0}
#181000
0!
0N
0O
#181500
1!
1N
1O
1k
1T!
1F
0r
1l
#182000
0!
0N
0O
#182500
1!
1N
1O
1S!
0k
1w
0T!
0F
1E
1r
1x
#183000
0!
0N
0O
#183500
1!
1N
1O
1k
1T!
1F
1m
0r
0l
#184000
0!
0N
0O
#184500
1!
1N
1O
1R!
0S!
0k
1y
0w
0T!
0F
0E
1D
1r
0x
1z
#185000
0!
0N
0O
#185500
1!
1N
1O
1k
1T!
1F
0r
1l
#186000
0!
0N
0O
#186500
1!
1N
1O
1S!
0k
1w
0T!
0F
1E
1r
1x
#187000
0!
0N
0O
#187500
1!
1N
1O
1k
1T!
1F
1o
0m
0r
0l
#188000
0!
0N
0O
#188500
1!
1N
1O
1p
0R!
0S!
0k
0y
0w
0T!
1Q!
1C
0F
0E
0D
1r
0x
0z
#189000
0!
0N
0O
#189500
1!
1N
1O
1k
1T!
1F
1|
0q
0o
0r
1l
0l
0%!
1}
#190000
0!
0N
0O
#190500
1!
1N
1O
1g!
0p
0k
0h!
1~
0T!
0Q!
0C
0F
1A
0B
0|
1q
0&!
1%!
1r
0%!
#191000
0!
0N
0O
