reg4bits_en/simulation/qsim/reg4bits_en.msim.vcd
$comment
	File created using the following command:
		vcd file reg4bits_en.msim.vcd -direction
$end
$date
	Fri Feb  3 03:28:56 2017
$end
$version
	ModelSim Version 10.4b
$end
$timescale
	1ps
$end

$scope module reg4bits_en_vlg_vec_tst $end
$var reg 1 ! CLOCK $end
$var reg 1 " CLR $end
$var reg 4 # D [3:0] $end
$var reg 1 $ ENABLE $end
$var wire 1 % Q [3] $end
$var wire 1 & Q [2] $end
$var wire 1 ' Q [1] $end
$var wire 1 ( Q [0] $end

$scope module i1 $end
$var wire 1 ) gnd $end
$var wire 1 * vcc $end
$var wire 1 + unknown $end
$var tri1 1 , devclrn $end
$var tri1 1 - devpor $end
$var tri1 1 . devoe $end
$var wire 1 / ~QUARTUS_CREATED_GND~I_combout $end
$var wire 1 0 CLOCK~input_o $end
$var wire 1 1 CLOCK~inputCLKENA0_outclk $end
$var wire 1 2 CLR~input_o $end
$var wire 1 3 D[0]~input_o $end
$var wire 1 4 IQ~0_combout $end
$var wire 1 5 ENABLE~input_o $end
$var wire 1 6 process_0~0_combout $end
$var wire 1 7 Q[0]~reg0_q $end
$var wire 1 8 D[1]~input_o $end
$var wire 1 9 IQ~1_combout $end
$var wire 1 : Q[1]~reg0_q $end
$var wire 1 ; D[2]~input_o $end
$var wire 1 < IQ~2_combout $end
$var wire 1 = Q[2]~reg0_q $end
$var wire 1 > D[3]~input_o $end
$var wire 1 ? IQ~3_combout $end
$var wire 1 @ Q[3]~reg0_q $end
$var wire 1 A IQ [3] $end
$var wire 1 B IQ [2] $end
$var wire 1 C IQ [1] $end
$var wire 1 D IQ [0] $end
$upscope $end
$upscope $end
$enddefinitions $end
#0
$dumpvars
0!
0"
b0 #
1$
0(
0'
0&
0%
0)
1*
x+
1,
1-
1.
0/
00
01
02
03
04
15
16
07
08
09
0:
0;
0<
0=
0>
0?
0@
0D
0C
0B
0A
$end
#37500
1!
10
11
#75000
0!
00
01
#112500
1!
10
11
#150000
0!
00
01
#160000
1"
b1 #
12
13
#187500
1!
10
11
#200000
b11 #
b10 #
03
18
#220000
0"
02
19
#225000
0!
00
01
#262500
1!
10
11
1C
#280000
b0 #
08
09
#300000
0!
00
01
#337500
1!
10
11
0C
1:
1'
#360000
b1000 #
b1100 #
b1101 #
13
1;
1>
1?
1<
14
#375000
0!
00
01
#400000
b101 #
b1 #
b0 #
03
0;
0>
0?
0<
04
#412500
1!
10
11
0:
0'
#450000
0!
00
01
#460000
0$
05
06
#487500
1!
10
11
#525000
0!
00
01
#540000
b1000 #
b1001 #
13
1>
1?
14
#562500
1!
10
11
#600000
1$
0!
15
00
01
16
#620000
b1 #
b0 #
03
0>
0?
04
#637500
1!
10
11
#675000
0!
00
01
#700000
b100 #
b101 #
13
1;
1<
14
#712500
1!
10
11
1B
1D
#750000
0!
00
01
#787500
1!
10
11
1=
17
1(
1&
#800000
b1 #
b0 #
03
0;
0<
04
#825000
0!
00
01
#862500
1!
10
11
0B
0D
#900000
0!
00
01
#937500
1!
10
11
0=
07
0(
0&
#975000
0!
00
01
