Experimento3/SomadorBCD_restored/simulation/qsim/SomadorBCD.msim.vcd
$comment
	File created using the following command:
		vcd file SomadorBCD.msim.vcd -direction
$end
$date
	Wed Feb  1 12:05:14 2017
$end
$version
	ModelSim Version 10.4b
$end
$timescale
	1ps
$end

$scope module SomadorBCD_vlg_vec_tst $end
$var reg 4 ! A [3:0] $end
$var reg 4 " B [3:0] $end
$var reg 1 # vem_um $end
$var wire 1 $ S [3] $end
$var wire 1 % S [2] $end
$var wire 1 & S [1] $end
$var wire 1 ' S [0] $end
$var wire 1 ( s_cout1 $end
$var wire 1 ) s_soma1 [3] $end
$var wire 1 * s_soma1 [2] $end
$var wire 1 + s_soma1 [1] $end
$var wire 1 , s_soma1 [0] $end
$var wire 1 - vai_um $end

$scope module i1 $end
$var wire 1 . gnd $end
$var wire 1 / vcc $end
$var wire 1 0 unknown $end
$var tri1 1 1 devclrn $end
$var tri1 1 2 devpor $end
$var tri1 1 3 devoe $end
$var wire 1 4 ~QUARTUS_CREATED_GND~I_combout $end
$var wire 1 5 B[3]~input_o $end
$var wire 1 6 A[3]~input_o $end
$var wire 1 7 A[2]~input_o $end
$var wire 1 8 B[2]~input_o $end
$var wire 1 9 A[1]~input_o $end
$var wire 1 : B[1]~input_o $end
$var wire 1 ; vem_um~input_o $end
$var wire 1 < A[0]~input_o $end
$var wire 1 = B[0]~input_o $end
$var wire 1 > s1|_~13 $end
$var wire 1 ? s1|_~14 $end
$var wire 1 @ s1|_~7 $end
$var wire 1 A s1|_~8 $end
$var wire 1 B s1|_~10 $end
$var wire 1 C s1|_~11 $end
$var wire 1 D s1|_~4 $end
$var wire 1 E s1|_~5 $end
$var wire 1 F s1|Cout~sumout $end
$var wire 1 G s_vai_um~0_combout $end
$var wire 1 H s2|_~1 $end
$var wire 1 I s2|_~2 $end
$var wire 1 J s2|_~4 $end
$var wire 1 K s2|_~5 $end
$var wire 1 L s2|S [3] $end
$var wire 1 M s2|S [2] $end
$var wire 1 N s2|S [1] $end
$var wire 1 O s2|S [0] $end
$var wire 1 P s1|S [3] $end
$var wire 1 Q s1|S [2] $end
$var wire 1 R s1|S [1] $end
$var wire 1 S s1|S [0] $end
$upscope $end
$upscope $end
$enddefinitions $end
#0
$dumpvars
b0 !
b0 "
0#
0'
0&
0%
0$
0(
0,
0+
0*
0)
0-
0.
1/
x0
11
12
13
04
05
06
07
08
09
0:
0;
0<
0=
0>
0?
0@
0A
0B
0C
0D
0E
0F
0G
0H
0I
0J
0K
zO
0N
0M
0L
0S
0R
0Q
0P
$end
#40000
b100 !
b110 !
b111 !
b1000 "
15
1<
19
17
1Q
1R
1S
1P
1)
1'
1,
1+
1*
1K
1I
1L
1G
1-
1$
0L
1M
1%
0$
#120000
b11 !
b1 !
b0 !
b0 "
05
0<
09
07
0Q
0R
0S
0P
0)
0'
0,
0+
0*
0K
0I
1L
0G
0-
1$
0L
0M
0%
0$
#180000
b100 "
b110 "
b111 "
b1111 "
1=
1:
18
15
1P
1Q
1R
1S
1'
1,
1+
1*
1)
1K
1I
1G
1L
1$
1-
0L
1M
1%
0$
#240000
b1011 "
b1001 "
b1000 "
b0 "
0=
0:
08
05
0P
0Q
0R
0S
0'
0,
0+
0*
0)
0K
0I
0G
1L
1$
0-
0L
0M
0%
0$
#300000
b1000 !
b1001 !
b10 "
b11 "
b1011 "
1=
1:
15
1<
16
1E
1?
1R
1+
1@
1F
0R
1N
1&
0+
1(
1Q
1M
1G
1-
1%
1*
1K
0M
0%
1L
1$
#380000
b1 !
b0 !
b1001 "
b1000 "
b0 "
0=
0:
05
0<
06
0E
0?
0@
1R
1+
1I
0F
0R
0Q
0N
0&
0*
0+
0(
0K
0I
1M
0G
0-
1%
0L
0M
0%
0$
#440000
b100 !
b110 !
b100 "
b1110 !
b1111 !
b110 "
b111 "
b1111 "
1=
1:
18
15
1<
19
17
16
1E
1C
1A
1?
1F
1P
1Q
1R
1+
1*
1)
1(
1K
1I
1G
1L
1$
1-
0L
1M
1%
0$
#500000
b1011 !
b1001 !
b1011 "
b1 !
b0 !
b1001 "
b1000 "
b0 "
0=
0:
08
05
0<
09
07
06
0E
0C
0A
0?
0F
0P
0Q
0R
0+
0*
0)
0(
0K
0I
0G
1L
1$
0-
0L
0M
0%
0$
